…
Det er også lurt å gjøre seg kjent med klassen til variablene. Til det kan vi bruke `tibble()`, `str()` eller `class()`:



```r
# tibble og str gir informasjon om hele datasettet
tibble(data)
```

```
## # A tibble: 2,745 x 6
##        X internettbruk kjonn alder utdanning tillit
##    <int>         <int> <int> <int>     <int>  <int>
##  1     1             5     2    67        18      8
##  2     2             5     1    45        11      6
##  3     3             1     2    73         8      0
##  4     4             5     1    21         8     NA
##  5     5             1     2    86         3      6
##  6     6             5     2    53        17      6
##  7     7             1     1    77        18      0
##  8     8             5     2    35        18      3
##  9     9             1     2    66        16      6
## 10    10             4     1    52        10      6
## # ... with 2,735 more rows
```
…
