…
``` r
# Et alternativ til str()
FairFPSR3
```

    ## # A tibble: 36 x 5
    ##    inc_vote  year inflation goodnews growth
    ##       <dbl> <dbl>     <dbl>    <dbl>  <dbl>
    ##  1     48.5  1876    NA           NA   5.11
    ##  2     50.2  1880     1.97         9   3.88
    ##  3     49.8  1884     1.05         2   1.59
    ##  4     50.4  1888     0.604        3  -5.55
    ##  5     48.3  1892     2.27         7   2.76
    ##  6     47.8  1896     3.41         6 -10.0 
    ##  7     53.2  1900     2.55         7  -1.42
    ##  8     60.0  1904     1.44         5  -2.42
    ##  9     54.5  1908     1.88         8  -6.28
    ## 10     54.7  1912     2.17         8   4.16
    ## # ... with 26 more rows
…
